Dear professor, and sir,
     
         We changed our ER model according to TA's advice.
   
          Thank you for your hard work.
 
                                    CS425 V05 Group 5,
                                                Guangwen Liao, Wei Wu, Ye Yu
